[{  
    "keyname" : "Q",
    "keyDown" : "Q",
    "audio1" : "https://s3.amazonaws.com/freecodecamp/drums/Heater-1.mp3",
    "audio2" : "https://s3.amazonaws.com/freecodecamp/drums/Chord_1.mp3",
    "notename1" : "Heater 1",
    "notename2" : "Chord 1"
},{
    "keyname" :  "W",
    "keyDown" : "W",
    "audio1" : "https://s3.amazonaws.com/freecodecamp/drums/Heater-2.mp3",
    "audio2" : "https://s3.amazonaws.com/freecodecamp/drums/Chord_2.mp3",
    "notename1" : "Heater 2",
    "notename2" : "Chord 2"
},{
    "keyname" :  "E",
    "keyDown" : "W",
    "audio1" : "https://s3.amazonaws.com/freecodecamp/drums/Heater-3.mp3",
    "audio2" : "https://s3.amazonaws.com/freecodecamp/drums/Chord_3.mp3",
    "notename1" : "Heater 3",
    "notename2" : "Chord 3 "
},{
    "keyname" :  "A",
    "keyDown" : "W",
    "audio1" : "https://s3.amazonaws.com/freecodecamp/drums/Heater-4_1.mp3",
    "audio2" : "https://s3.amazonaws.com/freecodecamp/drums/Give_us_a_light.mp3",
    "notename1" : "Heater 4",
    "notename2" : "Shaker"
},{
    "keyname" :  "S",
    "keyDown" : "W",
    "audio1" : "https://s3.amazonaws.com/freecodecamp/drums/Heater-6.mp3",
    "audio2" : "https://s3.amazonaws.com/freecodecamp/drums/Dry_Ohh.mp3",
    "notename1" : "Clap",
    "notename2" : "Open HH"
},{
    "keyname" :  "D",
    "keyDown" : "W",
    "audio1" : "https://s3.amazonaws.com/freecodecamp/drums/Dsc_Oh.mp3",
    "audio2" : "https://s3.amazonaws.com/freecodecamp/drums/Bld_H1.mp3",
    "notename1" : "Open HH",
    "notename2" : "Closed HH"
},{
    "keyname" :  "Z",
    "keyDown" : "W",
    "audio1" : "https://s3.amazonaws.com/freecodecamp/drums/Kick_n_Hat.mp3",
    "audio2" : "https://s3.amazonaws.com/freecodecamp/drums/punchy_kick_1.mp3",
    "notename1" : "Kick n'Hat",
    "notename2" : "Punchy Kick"
},{
    "keyname" :  "X",
    "keyDown" : "W",
    "audio1" : "https://s3.amazonaws.com/freecodecamp/drums/RP4_KICK_1.mp3",
    "audio2" : "https://s3.amazonaws.com/freecodecamp/drums/side_stick_1.mp3",
    "notename1" : "Kick",
    "notename2" : "Side Kick"
},{
    "keyname" :  "C",
    "keyDown" : "W",
    "audio1" : "https://s3.amazonaws.com/freecodecamp/drums/Cev_H2.mp3",
    "audio2" : "https://s3.amazonaws.com/freecodecamp/drums/Brk_Snr.mp3",
    "notename1" : "Closed HH",
    "notename2" : "Snare"
}
]
